/Users/keisei/.rbenv/versions/2.2.2/bin/ruby -r ./siteconf20151003-8889-3bsldr.rb extconf.rb
checking for main() in -lc... yes
creating Makefile

make "DESTDIR=" clean

make "DESTDIR="
compiling redcloth_attributes.c
compiling redcloth_inline.c
compiling redcloth_scan.c
linking shared-object redcloth_scan.bundle

make "DESTDIR=" install
/usr/bin/install -c -m 0755 redcloth_scan.bundle ./.gem.20151003-8889-nhh7lr
